{
    "key": "group_59416d894b7c7",
    "title": "Fields: Button — To Clone",
    "fields": [
        {
            "key": "field_59416d96077a8",
            "label": "Button Text",
            "name": "button_text",
            "type": "text",
            "instructions": "Optional. Write a short call to action.",
            "required": 0,
            "conditional_logic": 0,
            "wrapper": {
                "width": "50",
                "class": "",
                "id": ""
            },
            "default_value": "",
            "placeholder": "",
            "prepend": "",
            "append": "",
            "maxlength": ""
        },
        {
            "key": "field_59416db5077a9",
            "label": "Button URL",
            "name": "button_url",
            "type": "url",
            "instructions": "Optional. Where will this button link to?",
            "required": 0,
            "conditional_logic": 0,
            "wrapper": {
                "width": "50",
                "class": "",
                "id": ""
            },
            "default_value": "",
            "placeholder": ""
        }
    ],
    "location": [
        [
            {
                "param": "post_type",
                "operator": "==",
                "value": "post"
            }
        ]
    ],
    "menu_order": 0,
    "position": "normal",
    "style": "default",
    "label_placement": "top",
    "instruction_placement": "label",
    "hide_on_screen": "",
    "active": false,
    "description": "",
    "modified": 1550175348
}