{
    "key": "group_595550c063c89",
    "title": "Group: Related Posts — To Clone",
    "fields": [
        {
            "key": "field_59567736aa8d5",
            "label": "Related Posts",
            "name": "",
            "type": "tab",
            "instructions": "",
            "required": 0,
            "conditional_logic": 0,
            "wrapper": {
                "width": "",
                "class": "",
                "id": ""
            },
            "placement": "top",
            "endpoint": 0
        },
        {
            "key": "field_595556aed7efc",
            "label": "Title",
            "name": "title",
            "type": "text",
            "instructions": "Optional. Give this block a title.",
            "required": 0,
            "conditional_logic": 0,
            "wrapper": {
                "width": "",
                "class": "",
                "id": ""
            },
            "default_value": "",
            "placeholder": "Related Posts",
            "prepend": "",
            "append": "",
            "maxlength": ""
        },
        {
            "key": "field_5955540e56b86",
            "label": "Select Posts",
            "name": "related_posts",
            "type": "relationship",
            "instructions": "Required. Choose up to three related posts.",
            "required": 0,
            "conditional_logic": 0,
            "wrapper": {
                "width": "",
                "class": "",
                "id": ""
            },
            "post_type": [
                "post"
            ],
            "taxonomy": [],
            "filters": [
                "search",
                "post_type",
                "taxonomy"
            ],
            "elements": "",
            "min": 3,
            "max": 3,
            "return_format": "object"
        }
    ],
    "location": [
        [
            {
                "param": "post_type",
                "operator": "==",
                "value": "post"
            }
        ]
    ],
    "menu_order": 0,
    "position": "normal",
    "style": "default",
    "label_placement": "top",
    "instruction_placement": "label",
    "hide_on_screen": "",
    "active": false,
    "description": "",
    "modified": 1550175348
}